program,java-core,java-extended,java-private,others
lucene-4.3.0,NaN,NaN,NaN,NaN
guava-21.0,NaN,NaN,NaN,NaN
fitjava-1.1,NaN,NaN,NaN,NaN
castor-1.3.1,0.0,0.0,1.0,0.0
checkstyle-5.1,0.5,0.0,0.5,0.0
commons-collections-3.2.1,NaN,NaN,NaN,NaN
informa-0.7.0-alpha2,0.0,0.0,1.0,0.0
javacc-5.0,NaN,NaN,NaN,NaN
jFin_DateMath-R1.0.1,NaN,NaN,NaN,NaN
jgrapht-0.8.1,NaN,NaN,NaN,NaN
jrat-0.6,0.3333333333333333,0.3333333333333333,0.3333333333333333,0.0
log4j-1.2.16,0.5,0.0,0.5,0.0
marauroa-3.8.1,NaN,NaN,NaN,NaN
nekohtml-1.9.14,NaN,NaN,NaN,NaN
openjms-0.7.7-beta-1,0.5,0.0,0.5,0.0
oscache-2.4.1,NaN,NaN,NaN,NaN
pmd-4.2.5,0.5,0.0,0.5,0.0
quartz-1.8.3,0.0,0.0,1.0,0.0
trove-2.1.0,NaN,NaN,NaN,NaN
velocity-1.6.4,NaN,NaN,NaN,NaN
wct-1.5.2,NaN,NaN,NaN,NaN
findbugs-1.3.9,0.5,0.0,0.5,0.0
htmlunit-2.8,NaN,NaN,NaN,NaN
jena-2.6.3,0.0,0.0,1.0,0.0
tomcat-7.0.2,0.0,0.0,1.0,0.0
weka-3-7-9,0.3,0.5,0.2,0.0
jfreechart-1.0.13,0.5,0.0,0.5,0.0
mockito-core-2.7.17,NaN,NaN,NaN,NaN
drools-7.0.0.Beta6,0.0,1.0,0.0,0.0
jrefactory-2.9.19,0.6,0.2,0.2,0.0
ApacheJMeter_core-3.1,0.75,0.0,0.25,0.0
