Category,type,Median
DI,#method.invoke,0.03158261475
DI,#handler.invoke,0.01774194018
DI,#lambda,0
DI,#dynproxy.invoke,0
DALL,#class.newinstance,0.1858957029
DALL,#constructor.newinstance,0.0310690377
DALL,#deserialize,0
DALL,#unsafe.getobject,0
DALL,#nativeallocation,0.3511378003
DACC,#field.get,0
SYS,#nocallsite,0.7748346644
SYS,#systemthread,0.02461520757
OTHER,uncategorized,0.03425469387
